Traceback (most recent call last):
  File "/Users/michalpalinski/anaconda3/envs/iapy/lib/python3.6/site-packages/jupyter_cache/executors/utils.py", line 56, in single_nb_execution
    record_timing=False,
  File "/Users/michalpalinski/anaconda3/envs/iapy/lib/python3.6/site-packages/nbclient/client.py", line 1112, in execute
    return NotebookClient(nb=nb, resources=resources, km=km, **kwargs).execute()
  File "/Users/michalpalinski/anaconda3/envs/iapy/lib/python3.6/site-packages/nbclient/util.py", line 74, in wrapped
    return just_run(coro(*args, **kwargs))
  File "/Users/michalpalinski/anaconda3/envs/iapy/lib/python3.6/site-packages/nbclient/util.py", line 53, in just_run
    return loop.run_until_complete(coro)
  File "/Users/michalpalinski/anaconda3/envs/iapy/lib/python3.6/asyncio/base_events.py", line 488, in run_until_complete
    return future.result()
  File "/Users/michalpalinski/anaconda3/envs/iapy/lib/python3.6/site-packages/nbclient/client.py", line 554, in async_execute
    cell, index, execution_count=self.code_cells_executed + 1
  File "/Users/michalpalinski/anaconda3/envs/iapy/lib/python3.6/site-packages/nbclient/client.py", line 857, in async_execute_cell
    self._check_raise_for_error(cell, exec_reply)
  File "/Users/michalpalinski/anaconda3/envs/iapy/lib/python3.6/site-packages/nbclient/client.py", line 760, in _check_raise_for_error
    raise CellExecutionError.from_cell_and_msg(cell, exec_reply_content)
nbclient.exceptions.CellExecutionError: An error occurred while executing the following cell:
------------------
top10=df.sort_values('retweets',ascending=False)
top10=top10.drop_duplicates('text')
top10=top10[~top10['text'].str.contains('RT @')]
# top10[:20][['text','retweets']]

for 
------------------

[0;36m  File [0;32m"<ipython-input-2-b71f1849a3c6>"[0;36m, line [0;32m6[0m
[0;31m    for[0m
[0m        ^[0m
[0;31mSyntaxError[0m[0;31m:[0m invalid syntax

SyntaxError: invalid syntax (<ipython-input-2-b71f1849a3c6>, line 6)

